Partie 2 Construction du modèle hiérarchique bayésien version 1 – Projet Model hiérarchique bayesien pour l’écologie
…
# ------------------------------------------------------------------------------
#                   RESUME DES DONNÉES
# ------------------------------------------------------------------------------
summary_table <- tigre_moustique_data %>%
  filter(!is.na(year), !is.na(stateProvince)) %>%  
  group_by(year, stateProvince) %>%                 
  summarise(n_occurrences = n(), .groups = "drop") 

df <- summary_table
df$i <- as.integer(factor(df$year))
df$j <- as.integer(factor(df$stateProvince))
df[, c("year", "stateProvince", "i", "j")]

# A tibble: 89 × 4
    year stateProvince                  i     j
   <int> <chr>                      <int> <int>
 1  2014 Languedoc-Roussillon           1    12
 2  2015 Provence-Alpes-Côte d'Azur     2    18
 3  2016 Provence-Alpes-Côte d'Azur     3    18
 4  2017 Languedoc-Roussillon           4    12
 5  2017 Midi-Pyrénées                  4    14
 6  2018 Languedoc-Roussillon           5    12
 7  2018 Midi-Pyrénées                  5    14
 8  2019 Aquitaine                      6     2
 9  2019 Corse                          6     8
10  2019 Languedoc-Roussillon           6    12
# ℹ 79 more rows
…
