Partie 3 : Modèle Extension – Projet Model hiérarchique bayesien pour l’écologie
…
# Fusion des résultats dans un tableau (data.frame) final
df_temp_final <- bind_rows(all_temps)
df_temp_final

────────────────────────────────────────────────────────────────────────────────

────────────────────────────────────────────────────────────────────────────────

────────────────────────────────────────────────────────────────────────────────
# A tibble: 276 × 5
    YEAR   T2M   LON   LAT stateProvince
   <dbl> <dbl> <dbl> <dbl> <chr>        
 1  2014 11.0   7.59  48.4 Alsace       
 2  2015 10.7   7.59  48.4 Alsace       
 3  2016 10.1   7.59  48.4 Alsace       
 4  2017 10.4   7.59  48.4 Alsace       
 5  2018 11.4   7.59  48.4 Alsace       
 6  2019 10.9   7.59  48.4 Alsace       
 7  2020 11.3   7.59  48.4 Alsace       
 8  2021  9.70  7.59  48.4 Alsace       
 9  2022 12.0   7.59  48.4 Alsace       
10  2023 12.1   7.59  48.4 Alsace       
# ℹ 266 more rows
…
